…
``` r
#https://dsl.richmond.edu/panorama/redlining/static/mappinginequality.json

# Download historic redlining data for Philadelphia
url <- "https://raw.githubusercontent.com/americanpanorama/mapping-inequality-census-crosswalk/main/MIv3Areas_2010TractCrosswalk.geojson"
philly_geojson <- read_sf(url)
philly_geojson
```

    Simple feature collection with 51866 features and 15 fields
    Geometry type: MULTIPOLYGON
    Dimension:     XY
    Bounding box:  xmin: -122.7675 ymin: 25.70537 xmax: -69.60044 ymax: 48.2473
    Geodetic CRS:  WGS 84
    # A tibble: 51,866 × 16
       area_id city      state city_survey cat   grade label res   com   ind   fill 
         <int> <chr>     <chr> <lgl>       <chr> <chr> <chr> <lgl> <lgl> <lgl> <chr>
     1     244 Birmingh… AL    TRUE        Best  A     A1    TRUE  FALSE FALSE #76a…
     2     244 Birmingh… AL    TRUE        Best  A     A1    TRUE  FALSE FALSE #76a…
     3     244 Birmingh… AL    TRUE        Best  A     A1    TRUE  FALSE FALSE #76a…
     4     244 Birmingh… AL    TRUE        Best  A     A1    TRUE  FALSE FALSE #76a…
     5     244 Birmingh… AL    TRUE        Best  A     A1    TRUE  FALSE FALSE #76a…
     6     193 Birmingh… AL    TRUE        Best  A     A2    TRUE  FALSE FALSE #76a…
     7     193 Birmingh… AL    TRUE        Best  A     A2    TRUE  FALSE FALSE #76a…
     8     193 Birmingh… AL    TRUE        Best  A     A2    TRUE  FALSE FALSE #76a…
     9     193 Birmingh… AL    TRUE        Best  A     A2    TRUE  FALSE FALSE #76a…
    10     193 Birmingh… AL    TRUE        Best  A     A2    TRUE  FALSE FALSE #76a…
    # ℹ 51,856 more rows
    # ℹ 5 more variables: GEOID10 <chr>, GISJOIN <chr>, calc_area <dbl>,
    #   pct_tract <dbl>, geometry <MULTIPOLYGON [°]>
…
